SingleCycle/cpu.vcd
$date
	Sun Jul 13 19:14:35 2014
$end
$version
	Icarus Verilog
$end
$timescale
	1ps
$end
$scope module SingleCycle $end
$var integer 32 ! i [31:0] $end
$upscope $end
$scope module SingleCycle $end
$var reg 1 " clk $end
$upscope $end
$enddefinitions $end
#0
$dumpvars
0"
bx !
$end
#10000
1"
b0 !
#11000
b1 !
#12000
b10 !
#13000
b11 !
#14000
b100 !
#15000
b101 !
#16000
b110 !
#17000
b111 !
#18000
b1000 !
#19000
b1001 !
#20000
b1010 !
#21000
b1011 !
#22000
b1100 !
#23000
b1101 !
#24000
b1110 !
#25000
b1111 !
#26000
b10000 !
#27000
b10001 !
#28000
b10010 !
#29000
b10011 !
#30000
b10100 !
#31000
b10101 !
#32000
b10110 !
#33000
b10111 !
#34000
b11000 !
#35000
b11001 !
#36000
b11010 !
#37000
b11011 !
#38000
b11100 !
#39000
b11101 !
#40000
b11110 !
#41000
b11111 !
#42000
b100000 !
#43000
b100001 !
#44000
b100010 !
#45000
b100011 !
#46000
b100100 !
#47000
b100101 !
#48000
b100110 !
#49000
b100111 !
#50000
b101000 !
#51000
b101001 !
#52000
b101010 !
#53000
b101011 !
#54000
b101100 !
#55000
b101101 !
#56000
b101110 !
#57000
b101111 !
#58000
b110000 !
#59000
b110001 !
#60000
b110010 !
#61000
b110011 !
#62000
b110100 !
#63000
b110101 !
#64000
b110110 !
#65000
b110111 !
#66000
b111000 !
#67000
b111001 !
#68000
b111010 !
#69000
b111011 !
#70000
b111100 !
#71000
b111101 !
#72000
b111110 !
#73000
b111111 !
#74000
b1000000 !
#75000
b1000001 !
#76000
b1000010 !
#77000
b1000011 !
#78000
b1000100 !
#79000
b1000101 !
#80000
b1000110 !
#81000
b1000111 !
#82000
b1001000 !
#83000
b1001001 !
#84000
b1001010 !
#85000
b1001011 !
#86000
b1001100 !
#87000
b1001101 !
#88000
b1001110 !
#89000
b1001111 !
#90000
b1010000 !
#91000
b1010001 !
#92000
b1010010 !
#93000
b1010011 !
#94000
b1010100 !
#95000
b1010101 !
#96000
b1010110 !
#97000
b1010111 !
#98000
b1011000 !
#99000
b1011001 !
#100000
b1011010 !
#101000
b1011011 !
#102000
b1011100 !
#103000
b1011101 !
#104000
b1011110 !
#105000
b1011111 !
#106000
b1100000 !
#107000
b1100001 !
#108000
b1100010 !
#109000
b1100011 !
#110000
b1100100 !
#111000
b1100101 !
#112000
b1100110 !
#113000
b1100111 !
#114000
b1101000 !
#115000
b1101001 !
#116000
b1101010 !
#117000
b1101011 !
#118000
b1101100 !
#119000
b1101101 !
#120000
b1101110 !
#121000
b1101111 !
#122000
b1110000 !
#123000
b1110001 !
#124000
b1110010 !
#125000
b1110011 !
#126000
b1110100 !
#127000
b1110101 !
#128000
b1110110 !
#129000
b1110111 !
#130000
b1111000 !
#131000
b1111001 !
#132000
b1111010 !
#133000
b1111011 !
#134000
b1111100 !
#135000
b1111101 !
#136000
b1111110 !
#137000
b1111111 !
#138000
b10000000 !
#139000
b10000001 !
#140000
b10000010 !
#141000
b10000011 !
#142000
b10000100 !
#143000
b10000101 !
#144000
b10000110 !
#145000
b10000111 !
#146000
b10001000 !
#147000
b10001001 !
#148000
b10001010 !
#149000
b10001011 !
#150000
b10001100 !
#151000
b10001101 !
#152000
b10001110 !
#153000
b10001111 !
#154000
b10010000 !
#155000
b10010001 !
#156000
b10010010 !
#157000
b10010011 !
#158000
b10010100 !
#159000
b10010101 !
#160000
b10010110 !
#161000
b10010111 !
#162000
b10011000 !
#163000
b10011001 !
#164000
b10011010 !
#165000
b10011011 !
#166000
b10011100 !
#167000
b10011101 !
#168000
b10011110 !
#169000
b10011111 !
#170000
b10100000 !
#171000
b10100001 !
#172000
b10100010 !
#173000
b10100011 !
#174000
b10100100 !
#175000
b10100101 !
#176000
b10100110 !
#177000
b10100111 !
#178000
b10101000 !
#179000
b10101001 !
#180000
b10101010 !
#181000
b10101011 !
#182000
b10101100 !
#183000
b10101101 !
#184000
b10101110 !
#185000
b10101111 !
#186000
b10110000 !
#187000
b10110001 !
#188000
b10110010 !
#189000
b10110011 !
#190000
b10110100 !
#191000
b10110101 !
#192000
b10110110 !
#193000
b10110111 !
#194000
b10111000 !
#195000
b10111001 !
#196000
b10111010 !
#197000
b10111011 !
#198000
b10111100 !
#199000
b10111101 !
#200000
b10111110 !
#201000
b10111111 !
#202000
b11000000 !
#203000
b11000001 !
#204000
b11000010 !
#205000
b11000011 !
#206000
b11000100 !
#207000
b11000101 !
#208000
b11000110 !
#209000
b11000111 !
#210000
b11001000 !
#211000
b11001001 !
#212000
b11001010 !
#213000
b11001011 !
#214000
b11001100 !
#215000
b11001101 !
#216000
b11001110 !
#217000
b11001111 !
#218000
b11010000 !
#219000
b11010001 !
#220000
b11010010 !
#221000
b11010011 !
#222000
b11010100 !
#223000
b11010101 !
#224000
b11010110 !
#225000
b11010111 !
#226000
b11011000 !
#227000
b11011001 !
#228000
b11011010 !
#229000
b11011011 !
#230000
b11011100 !
#231000
b11011101 !
#232000
b11011110 !
#233000
b11011111 !
#234000
b11100000 !
#235000
b11100001 !
#236000
b11100010 !
#237000
b11100011 !
#238000
b11100100 !
#239000
b11100101 !
#240000
b11100110 !
#241000
b11100111 !
#242000
b11101000 !
#243000
b11101001 !
#244000
b11101010 !
#245000
b11101011 !
#246000
b11101100 !
#247000
b11101101 !
#248000
b11101110 !
#249000
b11101111 !
#250000
b11110000 !
#251000
b11110001 !
#252000
b11110010 !
#253000
b11110011 !
#254000
b11110100 !
#255000
b11110101 !
#256000
b11110110 !
#257000
b11110111 !
#258000
b11111000 !
#259000
b11111001 !
#260000
b11111010 !
#261000
b11111011 !
#262000
b11111100 !
#263000
b11111101 !
#264000
b11111110 !
#265000
b11111111 !
#266000
b100000000 !
#267000
b100000001 !
#268000
b100000010 !
#269000
b100000011 !
#270000
b100000100 !
#271000
b100000101 !
#272000
b100000110 !
#273000
b100000111 !
#274000
b100001000 !
#275000
b100001001 !
#276000
b100001010 !
#277000
b100001011 !
#278000
b100001100 !
#279000
b100001101 !
#280000
b100001110 !
#281000
b100001111 !
#282000
b100010000 !
#283000
b100010001 !
#284000
b100010010 !
#285000
b100010011 !
#286000
b100010100 !
#287000
b100010101 !
#288000
b100010110 !
#289000
b100010111 !
#290000
b100011000 !
#291000
b100011001 !
#292000
b100011010 !
#293000
b100011011 !
#294000
b100011100 !
#295000
b100011101 !
#296000
b100011110 !
#297000
b100011111 !
#298000
b100100000 !
#299000
b100100001 !
#300000
b100100010 !
#301000
b100100011 !
#302000
b100100100 !
#303000
b100100101 !
#304000
b100100110 !
#305000
b100100111 !
#306000
b100101000 !
#307000
b100101001 !
#308000
b100101010 !
#309000
b100101011 !
#310000
b100101100 !
#311000
b100101101 !
#312000
b100101110 !
#313000
b100101111 !
#314000
b100110000 !
#315000
b100110001 !
#316000
b100110010 !
#317000
b100110011 !
#318000
b100110100 !
#319000
b100110101 !
#320000
b100110110 !
#321000
b100110111 !
#322000
b100111000 !
#323000
b100111001 !
#324000
b100111010 !
#325000
b100111011 !
#326000
b100111100 !
#327000
b100111101 !
#328000
b100111110 !
#329000
b100111111 !
#330000
b101000000 !
#331000
b101000001 !
#332000
b101000010 !
#333000
b101000011 !
#334000
b101000100 !
#335000
b101000101 !
#336000
b101000110 !
#337000
b101000111 !
#338000
b101001000 !
#339000
b101001001 !
#340000
b101001010 !
#341000
b101001011 !
#342000
b101001100 !
#343000
b101001101 !
#344000
b101001110 !
#345000
b101001111 !
#346000
b101010000 !
#347000
b101010001 !
#348000
b101010010 !
#349000
b101010011 !
#350000
b101010100 !
#351000
b101010101 !
#352000
b101010110 !
#353000
b101010111 !
#354000
b101011000 !
#355000
b101011001 !
#356000
b101011010 !
#357000
b101011011 !
#358000
b101011100 !
#359000
b101011101 !
#360000
b101011110 !
#361000
b101011111 !
#362000
b101100000 !
#363000
b101100001 !
#364000
b101100010 !
#365000
b101100011 !
#366000
b101100100 !
#367000
b101100101 !
#368000
b101100110 !
#369000
b101100111 !
#370000
b101101000 !
#371000
b101101001 !
#372000
b101101010 !
#373000
b101101011 !
#374000
b101101100 !
#375000
b101101101 !
#376000
b101101110 !
#377000
b101101111 !
#378000
b101110000 !
#379000
b101110001 !
#380000
b101110010 !
#381000
b101110011 !
#382000
b101110100 !
#383000
b101110101 !
#384000
b101110110 !
#385000
b101110111 !
#386000
b101111000 !
#387000
b101111001 !
#388000
b101111010 !
#389000
b101111011 !
#390000
b101111100 !
#391000
b101111101 !
#392000
b101111110 !
#393000
b101111111 !
#394000
b110000000 !
#395000
b110000001 !
#396000
b110000010 !
#397000
b110000011 !
#398000
b110000100 !
#399000
b110000101 !
#400000
b110000110 !
#401000
b110000111 !
#402000
b110001000 !
#403000
b110001001 !
#404000
b110001010 !
#405000
b110001011 !
#406000
b110001100 !
#407000
b110001101 !
#408000
b110001110 !
#409000
b110001111 !
#410000
b110010000 !
#411000
b110010001 !
#412000
b110010010 !
#413000
b110010011 !
#414000
b110010100 !
#415000
b110010101 !
#416000
b110010110 !
#417000
b110010111 !
#418000
b110011000 !
#419000
b110011001 !
#420000
b110011010 !
#421000
b110011011 !
#422000
b110011100 !
#423000
b110011101 !
#424000
b110011110 !
#425000
b110011111 !
#426000
b110100000 !
#427000
b110100001 !
#428000
b110100010 !
#429000
b110100011 !
#430000
b110100100 !
#431000
b110100101 !
#432000
b110100110 !
#433000
b110100111 !
#434000
b110101000 !
#435000
b110101001 !
#436000
b110101010 !
#437000
b110101011 !
#438000
b110101100 !
#439000
b110101101 !
#440000
b110101110 !
#441000
b110101111 !
#442000
b110110000 !
#443000
b110110001 !
#444000
b110110010 !
#445000
b110110011 !
#446000
b110110100 !
#447000
b110110101 !
#448000
b110110110 !
#449000
b110110111 !
#450000
b110111000 !
#451000
b110111001 !
#452000
b110111010 !
#453000
b110111011 !
#454000
b110111100 !
#455000
b110111101 !
#456000
b110111110 !
#457000
b110111111 !
#458000
b111000000 !
#459000
b111000001 !
#460000
b111000010 !
#461000
b111000011 !
#462000
b111000100 !
#463000
b111000101 !
#464000
b111000110 !
#465000
b111000111 !
#466000
b111001000 !
#467000
b111001001 !
#468000
b111001010 !
#469000
b111001011 !
#470000
b111001100 !
#471000
b111001101 !
#472000
b111001110 !
#473000
b111001111 !
#474000
b111010000 !
#475000
b111010001 !
#476000
b111010010 !
#477000
b111010011 !
#478000
b111010100 !
#479000
b111010101 !
#480000
b111010110 !
#481000
b111010111 !
#482000
b111011000 !
#483000
b111011001 !
#484000
b111011010 !
#485000
b111011011 !
#486000
b111011100 !
#487000
b111011101 !
#488000
b111011110 !
#489000
b111011111 !
#490000
b111100000 !
#491000
b111100001 !
#492000
b111100010 !
#493000
b111100011 !
#494000
b111100100 !
#495000
b111100101 !
#496000
b111100110 !
#497000
b111100111 !
#498000
b111101000 !
#499000
b111101001 !
#500000
b111101010 !
#501000
b111101011 !
#502000
b111101100 !
#503000
b111101101 !
#504000
b111101110 !
#505000
b111101111 !
#506000
b111110000 !
#507000
b111110001 !
#508000
b111110010 !
#509000
b111110011 !
#510000
0"
b111110100 !
#511000
b111110101 !
#512000
b111110110 !
#513000
b111110111 !
#514000
b111111000 !
#515000
b111111001 !
#516000
b111111010 !
#517000
b111111011 !
#518000
b111111100 !
#519000
b111111101 !
#520000
b111111110 !
#521000
b111111111 !
#522000
b1000000000 !
#523000
b1000000001 !
#524000
b1000000010 !
#525000
b1000000011 !
#526000
b1000000100 !
#527000
b1000000101 !
#528000
b1000000110 !
#529000
b1000000111 !
#530000
b1000001000 !
#531000
b1000001001 !
#532000
b1000001010 !
#533000
b1000001011 !
#534000
b1000001100 !
#535000
b1000001101 !
#536000
b1000001110 !
#537000
b1000001111 !
#538000
b1000010000 !
#539000
b1000010001 !
#540000
b1000010010 !
#541000
b1000010011 !
#542000
b1000010100 !
#543000
b1000010101 !
#544000
b1000010110 !
#545000
b1000010111 !
#546000
b1000011000 !
#547000
b1000011001 !
#548000
b1000011010 !
#549000
b1000011011 !
#550000
b1000011100 !
#551000
b1000011101 !
#552000
b1000011110 !
#553000
b1000011111 !
#554000
b1000100000 !
#555000
b1000100001 !
#556000
b1000100010 !
#557000
b1000100011 !
#558000
b1000100100 !
#559000
b1000100101 !
#560000
b1000100110 !
#561000
b1000100111 !
#562000
b1000101000 !
#563000
b1000101001 !
#564000
b1000101010 !
#565000
b1000101011 !
#566000
b1000101100 !
#567000
b1000101101 !
#568000
b1000101110 !
#569000
b1000101111 !
#570000
b1000110000 !
#571000
b1000110001 !
#572000
b1000110010 !
#573000
b1000110011 !
#574000
b1000110100 !
#575000
b1000110101 !
#576000
b1000110110 !
#577000
b1000110111 !
#578000
b1000111000 !
#579000
b1000111001 !
#580000
b1000111010 !
#581000
b1000111011 !
#582000
b1000111100 !
#583000
b1000111101 !
#584000
b1000111110 !
#585000
b1000111111 !
#586000
b1001000000 !
#587000
b1001000001 !
#588000
b1001000010 !
#589000
b1001000011 !
#590000
b1001000100 !
#591000
b1001000101 !
#592000
b1001000110 !
#593000
b1001000111 !
#594000
b1001001000 !
#595000
b1001001001 !
#596000
b1001001010 !
#597000
b1001001011 !
#598000
b1001001100 !
#599000
b1001001101 !
#600000
b1001001110 !
#601000
b1001001111 !
#602000
b1001010000 !
#603000
b1001010001 !
#604000
b1001010010 !
#605000
b1001010011 !
#606000
b1001010100 !
#607000
b1001010101 !
#608000
b1001010110 !
#609000
b1001010111 !
#610000
b1001011000 !
#611000
b1001011001 !
#612000
b1001011010 !
#613000
b1001011011 !
#614000
b1001011100 !
#615000
b1001011101 !
#616000
b1001011110 !
#617000
b1001011111 !
#618000
b1001100000 !
#619000
b1001100001 !
#620000
b1001100010 !
#621000
b1001100011 !
#622000
b1001100100 !
#623000
b1001100101 !
#624000
b1001100110 !
#625000
b1001100111 !
#626000
b1001101000 !
#627000
b1001101001 !
#628000
b1001101010 !
#629000
b1001101011 !
#630000
b1001101100 !
#631000
b1001101101 !
#632000
b1001101110 !
#633000
b1001101111 !
#634000
b1001110000 !
#635000
b1001110001 !
#636000
b1001110010 !
#637000
b1001110011 !
#638000
b1001110100 !
#639000
b1001110101 !
#640000
b1001110110 !
#641000
b1001110111 !
#642000
b1001111000 !
#643000
b1001111001 !
#644000
b1001111010 !
#645000
b1001111011 !
#646000
b1001111100 !
#647000
b1001111101 !
#648000
b1001111110 !
#649000
b1001111111 !
#650000
b1010000000 !
#651000
b1010000001 !
#652000
b1010000010 !
#653000
b1010000011 !
#654000
b1010000100 !
#655000
b1010000101 !
#656000
b1010000110 !
#657000
b1010000111 !
#658000
b1010001000 !
#659000
b1010001001 !
#660000
b1010001010 !
#661000
b1010001011 !
#662000
b1010001100 !
#663000
b1010001101 !
#664000
b1010001110 !
#665000
b1010001111 !
#666000
b1010010000 !
#667000
b1010010001 !
#668000
b1010010010 !
#669000
b1010010011 !
#670000
b1010010100 !
#671000
b1010010101 !
#672000
b1010010110 !
#673000
b1010010111 !
#674000
b1010011000 !
#675000
b1010011001 !
#676000
b1010011010 !
#677000
b1010011011 !
#678000
b1010011100 !
#679000
b1010011101 !
#680000
b1010011110 !
#681000
b1010011111 !
#682000
b1010100000 !
#683000
b1010100001 !
#684000
b1010100010 !
#685000
b1010100011 !
#686000
b1010100100 !
#687000
b1010100101 !
#688000
b1010100110 !
#689000
b1010100111 !
#690000
b1010101000 !
#691000
b1010101001 !
#692000
b1010101010 !
#693000
b1010101011 !
#694000
b1010101100 !
#695000
b1010101101 !
#696000
b1010101110 !
#697000
b1010101111 !
#698000
b1010110000 !
#699000
b1010110001 !
#700000
b1010110010 !
#701000
b1010110011 !
#702000
b1010110100 !
#703000
b1010110101 !
#704000
b1010110110 !
#705000
b1010110111 !
#706000
b1010111000 !
#707000
b1010111001 !
#708000
b1010111010 !
#709000
b1010111011 !
#710000
b1010111100 !
#711000
b1010111101 !
#712000
b1010111110 !
#713000
b1010111111 !
#714000
b1011000000 !
#715000
b1011000001 !
#716000
b1011000010 !
#717000
b1011000011 !
#718000
b1011000100 !
#719000
b1011000101 !
#720000
b1011000110 !
#721000
b1011000111 !
#722000
b1011001000 !
#723000
b1011001001 !
#724000
b1011001010 !
#725000
b1011001011 !
#726000
b1011001100 !
#727000
b1011001101 !
#728000
b1011001110 !
#729000
b1011001111 !
#730000
b1011010000 !
#731000
b1011010001 !
#732000
b1011010010 !
#733000
b1011010011 !
#734000
b1011010100 !
#735000
b1011010101 !
#736000
b1011010110 !
#737000
b1011010111 !
#738000
b1011011000 !
#739000
b1011011001 !
#740000
b1011011010 !
#741000
b1011011011 !
#742000
b1011011100 !
#743000
b1011011101 !
#744000
b1011011110 !
#745000
b1011011111 !
#746000
b1011100000 !
#747000
b1011100001 !
#748000
b1011100010 !
#749000
b1011100011 !
#750000
b1011100100 !
#751000
b1011100101 !
#752000
b1011100110 !
#753000
b1011100111 !
#754000
b1011101000 !
#755000
b1011101001 !
#756000
b1011101010 !
#757000
b1011101011 !
#758000
b1011101100 !
#759000
b1011101101 !
#760000
b1011101110 !
#761000
b1011101111 !
#762000
b1011110000 !
#763000
b1011110001 !
#764000
b1011110010 !
#765000
b1011110011 !
#766000
b1011110100 !
#767000
b1011110101 !
#768000
b1011110110 !
#769000
b1011110111 !
#770000
b1011111000 !
#771000
b1011111001 !
#772000
b1011111010 !
#773000
b1011111011 !
#774000
b1011111100 !
#775000
b1011111101 !
#776000
b1011111110 !
#777000
b1011111111 !
#778000
b1100000000 !
#779000
b1100000001 !
#780000
b1100000010 !
#781000
b1100000011 !
#782000
b1100000100 !
#783000
b1100000101 !
#784000
b1100000110 !
#785000
b1100000111 !
#786000
b1100001000 !
#787000
b1100001001 !
#788000
b1100001010 !
#789000
b1100001011 !
#790000
b1100001100 !
#791000
b1100001101 !
#792000
b1100001110 !
#793000
b1100001111 !
#794000
b1100010000 !
#795000
b1100010001 !
#796000
b1100010010 !
#797000
b1100010011 !
#798000
b1100010100 !
#799000
b1100010101 !
#800000
b1100010110 !
#801000
b1100010111 !
#802000
b1100011000 !
#803000
b1100011001 !
#804000
b1100011010 !
#805000
b1100011011 !
#806000
b1100011100 !
#807000
b1100011101 !
#808000
b1100011110 !
#809000
b1100011111 !
#810000
b1100100000 !
#811000
b1100100001 !
#812000
b1100100010 !
#813000
b1100100011 !
#814000
b1100100100 !
#815000
b1100100101 !
#816000
b1100100110 !
#817000
b1100100111 !
#818000
b1100101000 !
#819000
b1100101001 !
#820000
b1100101010 !
#821000
b1100101011 !
#822000
b1100101100 !
#823000
b1100101101 !
#824000
b1100101110 !
#825000
b1100101111 !
#826000
b1100110000 !
#827000
b1100110001 !
#828000
b1100110010 !
#829000
b1100110011 !
#830000
b1100110100 !
#831000
b1100110101 !
#832000
b1100110110 !
#833000
b1100110111 !
#834000
b1100111000 !
#835000
b1100111001 !
#836000
b1100111010 !
#837000
b1100111011 !
#838000
b1100111100 !
#839000
b1100111101 !
#840000
b1100111110 !
#841000
b1100111111 !
#842000
b1101000000 !
#843000
b1101000001 !
#844000
b1101000010 !
#845000
b1101000011 !
#846000
b1101000100 !
#847000
b1101000101 !
#848000
b1101000110 !
#849000
b1101000111 !
#850000
b1101001000 !
#851000
b1101001001 !
#852000
b1101001010 !
#853000
b1101001011 !
#854000
b1101001100 !
#855000
b1101001101 !
#856000
b1101001110 !
#857000
b1101001111 !
#858000
b1101010000 !
#859000
b1101010001 !
#860000
b1101010010 !
#861000
b1101010011 !
#862000
b1101010100 !
#863000
b1101010101 !
#864000
b1101010110 !
#865000
b1101010111 !
#866000
b1101011000 !
#867000
b1101011001 !
#868000
b1101011010 !
#869000
b1101011011 !
#870000
b1101011100 !
#871000
b1101011101 !
#872000
b1101011110 !
#873000
b1101011111 !
#874000
b1101100000 !
#875000
b1101100001 !
#876000
b1101100010 !
#877000
b1101100011 !
#878000
b1101100100 !
#879000
b1101100101 !
#880000
b1101100110 !
#881000
b1101100111 !
#882000
b1101101000 !
#883000
b1101101001 !
#884000
b1101101010 !
#885000
b1101101011 !
#886000
b1101101100 !
#887000
b1101101101 !
#888000
b1101101110 !
#889000
b1101101111 !
#890000
b1101110000 !
#891000
b1101110001 !
#892000
b1101110010 !
#893000
b1101110011 !
#894000
b1101110100 !
#895000
b1101110101 !
#896000
b1101110110 !
#897000
b1101110111 !
#898000
b1101111000 !
#899000
b1101111001 !
#900000
b1101111010 !
#901000
b1101111011 !
#902000
b1101111100 !
#903000
b1101111101 !
#904000
b1101111110 !
#905000
b1101111111 !
#906000
b1110000000 !
#907000
b1110000001 !
#908000
b1110000010 !
#909000
b1110000011 !
#910000
b1110000100 !
#911000
b1110000101 !
#912000
b1110000110 !
#913000
b1110000111 !
#914000
b1110001000 !
#915000
b1110001001 !
#916000
b1110001010 !
#917000
b1110001011 !
#918000
b1110001100 !
#919000
b1110001101 !
#920000
b1110001110 !
#921000
b1110001111 !
#922000
b1110010000 !
#923000
b1110010001 !
#924000
b1110010010 !
#925000
b1110010011 !
#926000
b1110010100 !
#927000
b1110010101 !
#928000
b1110010110 !
#929000
b1110010111 !
#930000
b1110011000 !
#931000
b1110011001 !
#932000
b1110011010 !
#933000
b1110011011 !
#934000
b1110011100 !
#935000
b1110011101 !
#936000
b1110011110 !
#937000
b1110011111 !
#938000
b1110100000 !
#939000
b1110100001 !
#940000
b1110100010 !
#941000
b1110100011 !
#942000
b1110100100 !
#943000
b1110100101 !
#944000
b1110100110 !
#945000
b1110100111 !
#946000
b1110101000 !
#947000
b1110101001 !
#948000
b1110101010 !
#949000
b1110101011 !
#950000
b1110101100 !
#951000
b1110101101 !
#952000
b1110101110 !
#953000
b1110101111 !
#954000
b1110110000 !
#955000
b1110110001 !
#956000
b1110110010 !
#957000
b1110110011 !
#958000
b1110110100 !
#959000
b1110110101 !
#960000
b1110110110 !
#961000
b1110110111 !
#962000
b1110111000 !
#963000
b1110111001 !
#964000
b1110111010 !
#965000
b1110111011 !
#966000
b1110111100 !
#967000
b1110111101 !
#968000
b1110111110 !
#969000
b1110111111 !
#970000
b1111000000 !
#971000
b1111000001 !
#972000
b1111000010 !
#973000
b1111000011 !
#974000
b1111000100 !
#975000
b1111000101 !
#976000
b1111000110 !
#977000
b1111000111 !
#978000
b1111001000 !
#979000
b1111001001 !
#980000
b1111001010 !
#981000
b1111001011 !
#982000
b1111001100 !
#983000
b1111001101 !
#984000
b1111001110 !
#985000
b1111001111 !
#986000
b1111010000 !
#987000
b1111010001 !
#988000
b1111010010 !
#989000
b1111010011 !
#990000
b1111010100 !
#991000
b1111010101 !
#992000
b1111010110 !
#993000
b1111010111 !
#994000
b1111011000 !
#995000
b1111011001 !
#996000
b1111011010 !
#997000
b1111011011 !
#998000
b1111011100 !
#999000
b1111011101 !
#1000000
b1111011110 !
#1001000
b1111011111 !
#1002000
b1111100000 !
#1003000
b1111100001 !
#1004000
b1111100010 !
#1005000
b1111100011 !
#1006000
b1111100100 !
#1007000
b1111100101 !
#1008000
b1111100110 !
#1009000
b1111100111 !
#1010000
1"
b1111101000 !
#1011000
b1111101001 !
#1012000
b1111101010 !
#1013000
b1111101011 !
#1014000
b1111101100 !
#1015000
b1111101101 !
#1016000
b1111101110 !
#1017000
b1111101111 !
#1018000
b1111110000 !
#1019000
b1111110001 !
#1020000
b1111110010 !
#1021000
b1111110011 !
#1022000
b1111110100 !
#1023000
b1111110101 !
#1024000
b1111110110 !
#1025000
b1111110111 !
#1026000
b1111111000 !
#1027000
b1111111001 !
#1028000
b1111111010 !
#1029000
b1111111011 !
#1030000
b1111111100 !
#1031000
b1111111101 !
#1032000
b1111111110 !
#1033000
b1111111111 !
#1034000
b10000000000 !
#1035000
b10000000001 !
#1036000
b10000000010 !
#1037000
b10000000011 !
#1038000
b10000000100 !
#1039000
b10000000101 !
#1040000
b10000000110 !
#1041000
b10000000111 !
#1042000
b10000001000 !
#1043000
b10000001001 !
#1044000
b10000001010 !
#1045000
b10000001011 !
#1046000
b10000001100 !
#1047000
b10000001101 !
#1048000
b10000001110 !
#1049000
b10000001111 !
#1050000
b10000010000 !
#1051000
b10000010001 !
#1052000
b10000010010 !
#1053000
b10000010011 !
#1054000
b10000010100 !
#1055000
b10000010101 !
#1056000
b10000010110 !
#1057000
b10000010111 !
#1058000
b10000011000 !
#1059000
b10000011001 !
#1060000
b10000011010 !
#1061000
b10000011011 !
#1062000
b10000011100 !
#1063000
b10000011101 !
#1064000
b10000011110 !
#1065000
b10000011111 !
#1066000
b10000100000 !
#1067000
b10000100001 !
#1068000
b10000100010 !
#1069000
b10000100011 !
#1070000
b10000100100 !
#1071000
b10000100101 !
#1072000
b10000100110 !
#1073000
b10000100111 !
#1074000
b10000101000 !
#1075000
b10000101001 !
#1076000
b10000101010 !
#1077000
b10000101011 !
#1078000
b10000101100 !
#1079000
b10000101101 !
#1080000
b10000101110 !
#1081000
b10000101111 !
#1082000
b10000110000 !
#1083000
b10000110001 !
#1084000
b10000110010 !
#1085000
b10000110011 !
#1086000
b10000110100 !
#1087000
b10000110101 !
#1088000
b10000110110 !
#1089000
b10000110111 !
#1090000
b10000111000 !
#1091000
b10000111001 !
#1092000
b10000111010 !
#1093000
b10000111011 !
#1094000
b10000111100 !
#1095000
b10000111101 !
#1096000
b10000111110 !
#1097000
b10000111111 !
#1098000
b10001000000 !
#1099000
b10001000001 !
#1100000
b10001000010 !
#1101000
b10001000011 !
#1102000
b10001000100 !
#1103000
b10001000101 !
#1104000
b10001000110 !
#1105000
b10001000111 !
#1106000
b10001001000 !
#1107000
b10001001001 !
#1108000
b10001001010 !
#1109000
b10001001011 !
#1110000
b10001001100 !
#1111000
b10001001101 !
#1112000
b10001001110 !
#1113000
b10001001111 !
#1114000
b10001010000 !
#1115000
b10001010001 !
#1116000
b10001010010 !
#1117000
b10001010011 !
#1118000
b10001010100 !
#1119000
b10001010101 !
#1120000
b10001010110 !
#1121000
b10001010111 !
#1122000
b10001011000 !
#1123000
b10001011001 !
#1124000
b10001011010 !
#1125000
b10001011011 !
#1126000
b10001011100 !
#1127000
b10001011101 !
#1128000
b10001011110 !
#1129000
b10001011111 !
#1130000
b10001100000 !
#1131000
b10001100001 !
#1132000
b10001100010 !
#1133000
b10001100011 !
#1134000
b10001100100 !
#1135000
b10001100101 !
#1136000
b10001100110 !
#1137000
b10001100111 !
#1138000
b10001101000 !
#1139000
b10001101001 !
#1140000
b10001101010 !
#1141000
b10001101011 !
#1142000
b10001101100 !
#1143000
b10001101101 !
#1144000
b10001101110 !
#1145000
b10001101111 !
#1146000
b10001110000 !
#1147000
b10001110001 !
#1148000
b10001110010 !
#1149000
b10001110011 !
#1150000
b10001110100 !
#1151000
b10001110101 !
#1152000
b10001110110 !
#1153000
b10001110111 !
#1154000
b10001111000 !
#1155000
b10001111001 !
#1156000
b10001111010 !
#1157000
b10001111011 !
#1158000
b10001111100 !
#1159000
b10001111101 !
#1160000
b10001111110 !
#1161000
b10001111111 !
#1162000
b10010000000 !
#1163000
b10010000001 !
#1164000
b10010000010 !
#1165000
b10010000011 !
#1166000
b10010000100 !
#1167000
b10010000101 !
#1168000
b10010000110 !
#1169000
b10010000111 !
#1170000
b10010001000 !
#1171000
b10010001001 !
#1172000
b10010001010 !
#1173000
b10010001011 !
#1174000
b10010001100 !
#1175000
b10010001101 !
#1176000
b10010001110 !
#1177000
b10010001111 !
#1178000
b10010010000 !
#1179000
b10010010001 !
#1180000
b10010010010 !
#1181000
b10010010011 !
#1182000
b10010010100 !
#1183000
b10010010101 !
#1184000
b10010010110 !
#1185000
b10010010111 !
#1186000
b10010011000 !
#1187000
b10010011001 !
#1188000
b10010011010 !
#1189000
b10010011011 !
#1190000
b10010011100 !
#1191000
b10010011101 !
#1192000
b10010011110 !
#1193000
b10010011111 !
#1194000
b10010100000 !
#1195000
b10010100001 !
#1196000
b10010100010 !
#1197000
b10010100011 !
#1198000
b10010100100 !
#1199000
b10010100101 !
#1200000
b10010100110 !
#1201000
b10010100111 !
#1202000
b10010101000 !
#1203000
b10010101001 !
#1204000
b10010101010 !
#1205000
b10010101011 !
#1206000
b10010101100 !
#1207000
b10010101101 !
#1208000
b10010101110 !
#1209000
b10010101111 !
#1210000
b10010110000 !
#1211000
b10010110001 !
#1212000
b10010110010 !
#1213000
b10010110011 !
#1214000
b10010110100 !
#1215000
b10010110101 !
#1216000
b10010110110 !
#1217000
b10010110111 !
#1218000
b10010111000 !
#1219000
b10010111001 !
#1220000
b10010111010 !
#1221000
b10010111011 !
#1222000
b10010111100 !
#1223000
b10010111101 !
#1224000
b10010111110 !
#1225000
b10010111111 !
#1226000
b10011000000 !
#1227000
b10011000001 !
#1228000
b10011000010 !
#1229000
b10011000011 !
#1230000
b10011000100 !
#1231000
b10011000101 !
#1232000
b10011000110 !
#1233000
b10011000111 !
#1234000
b10011001000 !
#1235000
b10011001001 !
#1236000
b10011001010 !
#1237000
b10011001011 !
#1238000
b10011001100 !
#1239000
b10011001101 !
#1240000
b10011001110 !
#1241000
b10011001111 !
#1242000
b10011010000 !
#1243000
b10011010001 !
#1244000
b10011010010 !
#1245000
b10011010011 !
#1246000
b10011010100 !
#1247000
b10011010101 !
#1248000
b10011010110 !
#1249000
b10011010111 !
#1250000
b10011011000 !
#1251000
b10011011001 !
#1252000
b10011011010 !
#1253000
b10011011011 !
#1254000
b10011011100 !
#1255000
b10011011101 !
#1256000
b10011011110 !
#1257000
b10011011111 !
#1258000
b10011100000 !
#1259000
b10011100001 !
#1260000
b10011100010 !
#1261000
b10011100011 !
#1262000
b10011100100 !
#1263000
b10011100101 !
#1264000
b10011100110 !
#1265000
b10011100111 !
#1266000
b10011101000 !
#1267000
b10011101001 !
#1268000
b10011101010 !
#1269000
b10011101011 !
#1270000
b10011101100 !
